{
    "id": "com.adrienplazas.Metronome",
    "runtime": "org.gnome.Platform",
    "runtime-version": "44",
    "sdk": "org.gnome.Sdk",
    "sdk-extensions": [
        "org.freedesktop.Sdk.Extension.rust-stable"
    ],
    "command": "metronome",
    "finish-args": [
        "--share=ipc",
        "--device=dri",
        "--socket=fallback-x11",
        "--socket=pulseaudio",
        "--socket=wayland"
    ],
    "build-options": {
        "append-path": "/usr/lib/sdk/rust-stable/bin",
        "env": {
            "CARGO_HOME": "/run/build/metronome/cargo"
        }
    },
    "cleanup": [
        "/include",
        "/lib/pkgconfig",
        "/man",
        "/share/doc",
        "/share/gtk-doc",
        "/share/man",
        "/share/pkgconfig",
        "*.la",
        "*.a",
        "/lib/girepository-1.0",
        "/share/gir-1.0"
    ],
    "modules": [
        {
            "name": "metronome",
            "buildsystem": "meson",
            "sources": [
                {
                    "type": "archive",
                    "url": "https://gitlab.gnome.org/World/metronome/uploads/5efb0bac0bd09a15c5b027de4e4e4e32/metronome-1.2.1.tar.xz",
                    "sha256": "3896e6e0a97be7071a42fbf416db8a88d1e89cf662d0ccc7f007e09e13ac2f77"
                }
            ]
        }
    ]
}

